%YAML 1.1
%TAG !u! tag:unity3d.com,2011:
--- !u!114 &11400000
MonoBehaviour:
  m_ObjectHideFlags: 0
  m_CorrespondingSourceObject: {fileID: 0}
  m_PrefabInstance: {fileID: 0}
  m_PrefabAsset: {fileID: 0}
  m_GameObject: {fileID: 0}
  m_Enabled: 1
  m_EditorHideFlags: 0
  m_Script: {fileID: 11500000, guid: 5375023042ce66f4f95efaf4afe1ff62, type: 3}
  m_Name: Data_Skin 0
  m_EditorClassIdentifier: 
  keyID: 0
  nameCharSkin: body0
  cost: 2000
  sprite_Icon: {fileID: 21300000, guid: 0a912fea26f4a4544b51a5a03b320156, type: 3}
