%YAML 1.1
%TAG !u! tag:unity3d.com,2011:
--- !u!114 &11400000
MonoBehaviour:
  m_ObjectHideFlags: 0
  m_CorrespondingSourceObject: {fileID: 0}
  m_PrefabInstance: {fileID: 0}
  m_PrefabAsset: {fileID: 0}
  m_GameObject: {fileID: 0}
  m_Enabled: 1
  m_EditorHideFlags: 0
  m_Script: {fileID: 11500000, guid: 1496c129988a58b4cacf748240526cdb, type: 3}
  m_Name: sound_toGlass
  m_EditorClassIdentifier: 
  clip: {fileID: 8300000, guid: b39f2a7acc2d6af46874496ed72bb728, type: 3}
  volume: 0.75
  delay: 0
  pitch: 1
  isLoop: 0
