%YAML 1.1
%TAG !u! tag:unity3d.com,2011:
--- !u!114 &11400000
MonoBehaviour:
  m_ObjectHideFlags: 0
  m_CorrespondingSourceObject: {fileID: 0}
  m_PrefabInstance: {fileID: 0}
  m_PrefabAsset: {fileID: 0}
  m_GameObject: {fileID: 0}
  m_Enabled: 1
  m_EditorHideFlags: 0
  m_Script: {fileID: 11500000, guid: 1496c129988a58b4cacf748240526cdb, type: 3}
  m_Name: "1. Ti\u1EBFng robot quay l\u1EA1i"
  m_EditorClassIdentifier: 
  clip: {fileID: 8300000, guid: 7341c8f04977bcd40b481df6cae8514a, type: 3}
  volume: 0.3
  delay: 0
  pitch: 1
  isLoop: 0
