%YAML 1.1
%TAG !u! tag:unity3d.com,2011:
--- !u!114 &11400000
MonoBehaviour:
  m_ObjectHideFlags: 0
  m_CorrespondingSourceObject: {fileID: 0}
  m_PrefabInstance: {fileID: 0}
  m_PrefabAsset: {fileID: 0}
  m_GameObject: {fileID: 0}
  m_Enabled: 1
  m_EditorHideFlags: 0
  m_Script: {fileID: 11500000, guid: 5b8893e1edc017a409dd891087f90e8d, type: 3}
  m_Name: 3
  m_EditorClassIdentifier: 
  Ranger: 6
  rate_MoveToEnemy: 60
  time_MoveToEnemy_Min: 0.05
  time_MoveToEnemy_Max: 0.1
  isDelayAttack: 1
  time_DelayAttack_Min: 0.05
  time_DelayAttack_Max: 0.1
  time_Attack_Min: 0.25
  time_Attack_Max: 0.6
  rate_NewNode: 80
  isMoveEnemy_Dodge: 1
  time_MoveDodge_Min: 0.75
  time_MoveDodge_Max: 1.4
  time_MoveEnemy_Run_Min: 2
  time_MoveEnemy_Run_Max: 7
  time_MoveEnemy_Idle_Min: 1
  time_MoveEnemy_Idle_Max: 2
  isNoAttack: 0
  isMoveEnemy_Excape: 0
  isMoveEnemy_Chase: 0
